{
    "clientId": "goglides-user-frontend",
    "name" : "goglides-user-frontend",
    "description" : "goglides-user-frontend",
    "rootUrl": "http://localhost:4200",
    "baseUrl": "http://localhost:4200",
    "redirectUris": [
        "/*"
    ],
    "webOrigins": [
        "http://localhost:4200"
    ]
}

